\relax 
\providecommand\hyper@newdestlabel[2]{}
\providecommand\BKM@entry[2]{}
\providecommand*{\memsetcounter}[2]{}
\providecommand\HyperFirstAtBeginDocument{\AtBeginDocument}
\HyperFirstAtBeginDocument{\ifx\hyper@anchor\@undefined
\global\let\oldcontentsline\contentsline
\gdef\contentsline#1#2#3#4{\oldcontentsline{#1}{#2}{#3}}
\global\let\oldnewlabel\newlabel
\gdef\newlabel#1#2{\newlabelxx{#1}#2}
\gdef\newlabelxx#1#2#3#4#5#6{\oldnewlabel{#1}{{#2}{#3}}}
\AtEndDocument{\ifx\hyper@anchor\@undefined
\let\contentsline\oldcontentsline
\let\newlabel\oldnewlabel
\fi}
\fi}
\global\let\hyper@last\relax 
\gdef\HyperFirstAtBeginDocument#1{#1}
\providecommand\HyField@AuxAddToFields[1]{}
\providecommand\HyField@AuxAddToCoFields[2]{}
\catcode `:\active 
\catcode `;\active 
\catcode `!\active 
\catcode `?\active 
\catcode `"\active 
\catcode `<\active 
\catcode `>\active 
\@nameuse{es@quoting}
\citation{abnt-url-package=url}
\select@language{brazil}
\@writefile{toc}{\select@language{brazil}}
\@writefile{lof}{\select@language{brazil}}
\@writefile{lot}{\select@language{brazil}}
\BKM@entry{id=1,dest={6368617074657262312E30},srcline={183}}{466F6C686120646520726F73746F}
\BKM@entry{id=2,dest={6C6F662E30},srcline={187}}{4C6973746120646520696C75737472615C3334375C3336356573}
\BKM@entry{id=3,dest={6C6F742E30},srcline={205}}{4C6973746120646520746162656C6173}
\BKM@entry{id=4,dest={746F632E30},srcline={222}}{53756D5C33343172696F}
\BKM@entry{id=5,dest={636861707465722A2E35},srcline={238}}{496E74726F64755C3334375C3334336F}
\BKM@entry{id=6,dest={706172742E31},srcline={252}}{492050726F6A65746F20646F2053697374656D61}
\@writefile{toc}{\setlength  {\cftchapterindent }{\cftlastnumwidth } \setlength  {\cftchapternumwidth }{2em}}
\@writefile{toc}{\contentsline {chapter}{Introdu\IeC {\c c}\IeC {\~a}o}{9}{chapter*.5}}
\@writefile{toc}{\contentsline {part}{I\hspace  {1em}Projeto do Sistema}{9}{part.1}}
\BKM@entry{id=7,dest={636861707465722E31},srcline={254}}{4964656E7469666963615C3334375C3334336F20646520456E74726164617320652053615C333535646173}
\@writefile{toc}{\setlength  {\cftchapterindent }{0em} \setlength  {\cftchapternumwidth }{\cftlastnumwidth }}
\@writefile{toc}{\contentsline {chapter}{\chapternumberline {1}\MakeTextUppercase  {Identifica\IeC {\c c}\IeC {\~a}o de Entradas e Sa\IeC {\'\i }das}}{11}{chapter.1}}
\BKM@entry{id=8,dest={636861707465722E32},srcline={310}}{4465736372695C3334375C3334336F2065204361707475726120436F6D706F7274616D656E74616C}
\@writefile{toc}{\setlength  {\cftchapterindent }{0em} \setlength  {\cftchapternumwidth }{\cftlastnumwidth }}
\@writefile{toc}{\contentsline {chapter}{\chapternumberline {2}\MakeTextUppercase  {Descri\IeC {\c c}\IeC {\~a}o e Captura Comportamental}}{13}{chapter.2}}
\BKM@entry{id=9,dest={636861707465722E33},srcline={409}}{50726F6A65746F20646F20426C6F636F204F706572617469766F}
\@writefile{toc}{\setlength  {\cftchapterindent }{0em} \setlength  {\cftchapternumwidth }{\cftlastnumwidth }}
\@writefile{toc}{\contentsline {chapter}{\chapternumberline {3}\MakeTextUppercase  {Projeto do Bloco Operativo}}{17}{chapter.3}}
\BKM@entry{id=10,dest={636861707465722E34},srcline={486}}{50726F6A65746F20646F20426C6F636F20646520436F6E74726F6C65}
\@writefile{toc}{\setlength  {\cftchapterindent }{0em} \setlength  {\cftchapternumwidth }{\cftlastnumwidth }}
\@writefile{toc}{\contentsline {chapter}{\chapternumberline {4}\MakeTextUppercase  {Projeto do Bloco de Controle}}{21}{chapter.4}}
\BKM@entry{id=11,dest={636861707465722E35},srcline={573}}{50726F6A65746F20646120556E6964616465204C5C3336336769636F2D417269746D5C33353174696361}
\@writefile{toc}{\setlength  {\cftchapterindent }{0em} \setlength  {\cftchapternumwidth }{\cftlastnumwidth }}
\@writefile{toc}{\contentsline {chapter}{\chapternumberline {5}\MakeTextUppercase  {Projeto da Unidade L\IeC {\'o}gico-Aritm\IeC {\'e}tica}}{23}{chapter.5}}
\@input{abntex2-modelo-include-comandos.aux}
\BKM@entry{id=12,dest={706172742E32},srcline={698}}{494920446573656E766F6C76696D656E746F}
\BKM@entry{id=13,dest={706172742E33},srcline={704}}{49494920535C3335356E7465736520652062657263686D61726B73}
\BKM@entry{id=14,dest={706172742E34},srcline={707}}{495620436F6E636C75735C3334336F}
\bibdata{abntex2-options,abntex2-modelo-references}
\@writefile{toc}{\contentsline {part}{II\hspace  {1em}Desenvolvimento}{25}{part.2}}
\@writefile{toc}{\contentsline {part}{III\hspace  {1em}S\IeC {\'\i }ntese e berchmarks}{25}{part.3}}
\@writefile{toc}{\contentsline {part}{IV\hspace  {1em}Conclus\IeC {\~a}o}{25}{part.4}}
\@writefile{toc}{\vspace  {\cftbeforechapterskip }}
\newlabel{LastPage}{{}{25}{}{page.25}{}}
\xdef\lastpage@lastpage{25}
\xdef\lastpage@lastpageHy{25}
\bibstyle{abntex2-alf}
\memsetcounter{lastsheet}{28}
\memsetcounter{lastpage}{25}
