\relax 
\providecommand\hyper@newdestlabel[2]{}
\providecommand\BKM@entry[2]{}
\providecommand*{\memsetcounter}[2]{}
\providecommand\HyperFirstAtBeginDocument{\AtBeginDocument}
\HyperFirstAtBeginDocument{\ifx\hyper@anchor\@undefined
\global\let\oldcontentsline\contentsline
\gdef\contentsline#1#2#3#4{\oldcontentsline{#1}{#2}{#3}}
\global\let\oldnewlabel\newlabel
\gdef\newlabel#1#2{\newlabelxx{#1}#2}
\gdef\newlabelxx#1#2#3#4#5#6{\oldnewlabel{#1}{{#2}{#3}}}
\AtEndDocument{\ifx\hyper@anchor\@undefined
\let\contentsline\oldcontentsline
\let\newlabel\oldnewlabel
\fi}
\fi}
\global\let\hyper@last\relax 
\gdef\HyperFirstAtBeginDocument#1{#1}
\providecommand\HyField@AuxAddToFields[1]{}
\providecommand\HyField@AuxAddToCoFields[2]{}
\catcode `:\active 
\catcode `;\active 
\catcode `!\active 
\catcode `?\active 
\catcode `"\active 
\catcode `<\active 
\catcode `>\active 
\@nameuse{es@quoting}
\citation{abnt-url-package=url}
\@writefile{toc}{\changetocdepth  {4}}
\select@language{brazil}
\@writefile{toc}{\select@language{brazil}}
\@writefile{lof}{\select@language{brazil}}
\@writefile{lot}{\select@language{brazil}}
\BKM@entry{id=1,dest={6368617074657262312E30},srcline={195}}{466F6C686120646520726F73746F}
\BKM@entry{id=2,dest={6C6F662E30},srcline={199}}{4C6973746120646520696C75737472615C3334375C3336356573}
\@writefile{toc}{\setlength  {\cftchapterindent }{\cftlastnumwidth } \setlength  {\cftchapternumwidth }{2em}}
\BKM@entry{id=3,dest={6C6F742E30},srcline={238}}{4C6973746120646520746162656C6173}
\@writefile{toc}{\setlength  {\cftchapterindent }{\cftlastnumwidth } \setlength  {\cftchapternumwidth }{2em}}
\BKM@entry{id=4,dest={746F632E30},srcline={255}}{53756D5C33343172696F}
\@writefile{toc}{\setlength  {\cftchapterindent }{\cftlastnumwidth } \setlength  {\cftchapternumwidth }{2em}}
\BKM@entry{id=5,dest={636861707465722A2E32},srcline={271}}{496E74726F64755C3334375C3334336F}
\@writefile{toc}{\setlength  {\cftchapterindent }{\cftlastnumwidth } \setlength  {\cftchapternumwidth }{2em}}
\@writefile{toc}{\contentsline {chapter}{Introdu\IeC {\c c}\IeC {\~a}o}{9}{chapter*.2}}
\BKM@entry{id=6,dest={706172742E31},srcline={285}}{50726F6A65746F20646F2053697374656D61}
\@writefile{toc}{\contentsline {part}{\partnumberline {I}\MakeTextUppercase  {Projeto do Sistema}}{11}{part.1}}
\BKM@entry{id=7,dest={636861707465722E31},srcline={287}}{4964656E7469666963615C3334375C3334336F20646520456E74726164617320652053615C333535646173}
\@writefile{toc}{\setlength  {\cftchapterindent }{0em} \setlength  {\cftchapternumwidth }{\cftlastnumwidth }}
\@writefile{toc}{\contentsline {chapter}{\chapternumberline {1}\MakeTextUppercase  {Identifica\IeC {\c c}\IeC {\~a}o de Entradas e Sa\IeC {\'\i }das}}{13}{chapter.1}}
\BKM@entry{id=8,dest={636861707465722E32},srcline={349}}{4465736372695C3334375C3334336F2065204361707475726120436F6D706F7274616D656E74616C}
\@writefile{toc}{\setlength  {\cftchapterindent }{0em} \setlength  {\cftchapternumwidth }{\cftlastnumwidth }}
\@writefile{toc}{\contentsline {chapter}{\chapternumberline {2}\MakeTextUppercase  {Descri\IeC {\c c}\IeC {\~a}o e Captura Comportamental}}{15}{chapter.2}}
\BKM@entry{id=9,dest={636861707465722E33},srcline={476}}{50726F6A65746F20646F20426C6F636F204F706572617469766F}
\@writefile{toc}{\setlength  {\cftchapterindent }{0em} \setlength  {\cftchapternumwidth }{\cftlastnumwidth }}
\@writefile{toc}{\contentsline {chapter}{\chapternumberline {3}\MakeTextUppercase  {Projeto do Bloco Operativo}}{19}{chapter.3}}
\BKM@entry{id=10,dest={636861707465722E34},srcline={556}}{50726F6A65746F20646F20426C6F636F20646520436F6E74726F6C65}
\@writefile{toc}{\setlength  {\cftchapterindent }{0em} \setlength  {\cftchapternumwidth }{\cftlastnumwidth }}
\@writefile{toc}{\contentsline {chapter}{\chapternumberline {4}\MakeTextUppercase  {Projeto do Bloco de Controle}}{23}{chapter.4}}
\BKM@entry{id=11,dest={636861707465722E35},srcline={655}}{50726F6A65746F20646120556E6964616465204C5C3336336769636F2D417269746D5C33353174696361}
\@writefile{toc}{\setlength  {\cftchapterindent }{0em} \setlength  {\cftchapternumwidth }{\cftlastnumwidth }}
\@writefile{toc}{\contentsline {chapter}{\chapternumberline {5}\MakeTextUppercase  {Projeto da Unidade L\IeC {\'o}gico-Aritm\IeC {\'e}tica}}{25}{chapter.5}}
\@input{abntex2-modelo-include-comandos.aux}
\BKM@entry{id=12,dest={706172742E32},srcline={777}}{446573656E766F6C76696D656E746F206520546573746520646520436F6D706F6E656E746573}
\@writefile{toc}{\contentsline {part}{\partnumberline {II}\MakeTextUppercase  {Desenvolvimento e Teste de Componentes}}{27}{part.2}}
\BKM@entry{id=13,dest={636861707465722E36},srcline={779}}{457363726576656E646F206F7320636F6D706F6E656E746573}
\@writefile{toc}{\setlength  {\cftchapterindent }{0em} \setlength  {\cftchapternumwidth }{\cftlastnumwidth }}
\@writefile{toc}{\contentsline {chapter}{\chapternumberline {6}\MakeTextUppercase  {\relax \fontsize  {14.4}{18}\selectfont  Escrevendo os componentes}}{29}{chapter.6}}
\BKM@entry{id=14,dest={636861707465722E37},srcline={1451}}{54657374616E646F206F7320436F6D706F6E656E746573}
\@writefile{toc}{\setlength  {\cftchapterindent }{0em} \setlength  {\cftchapternumwidth }{\cftlastnumwidth }}
\@writefile{toc}{\contentsline {chapter}{\chapternumberline {7}\MakeTextUppercase  {Testando os Componentes}}{47}{chapter.7}}
\BKM@entry{id=15,dest={706172742E33},srcline={1618}}{4164617074615C3334375C333635657320652066756E63696F6E616D656E746F}
\@writefile{toc}{\contentsline {part}{\partnumberline {III}\MakeTextUppercase  {Adapta\IeC {\c c}\IeC {\~o}es e funcionamento}}{51}{part.3}}
\BKM@entry{id=16,dest={636861707465722E38},srcline={1620}}{4164617074615C3334375C3334336F206469726574612070617261206120706C61636120444532}
\@writefile{toc}{\setlength  {\cftchapterindent }{0em} \setlength  {\cftchapternumwidth }{\cftlastnumwidth }}
\@writefile{toc}{\contentsline {chapter}{\chapternumberline {8}\MakeTextUppercase  {Adapta\IeC {\c c}\IeC {\~a}o direta para a placa DE2}}{53}{chapter.8}}
\BKM@entry{id=17,dest={706172742E34},srcline={1782}}{436F6E636C75735C3334336F}
\@writefile{toc}{\contentsline {part}{\partnumberline {IV}\MakeTextUppercase  {Conclus\IeC {\~a}o}}{59}{part.4}}
\BKM@entry{id=18,dest={636861707465722E39},srcline={1783}}{436F6E7369646572615C3334375C33363565732066696E616973}
\@writefile{toc}{\setlength  {\cftchapterindent }{0em} \setlength  {\cftchapternumwidth }{\cftlastnumwidth }}
\@writefile{toc}{\contentsline {chapter}{\chapternumberline {9}\MakeTextUppercase  {Considera\IeC {\c c}\IeC {\~o}es finais}}{61}{chapter.9}}
\bibdata{abntex2-options,abntex2-modelo-references}
\@writefile{toc}{\vspace  {\cftbeforechapterskip }}
\BKM@entry{id=19,dest={73656374696F6E2A2E39},srcline={3}}{52656665725C3335326E63696173}
\@writefile{toc}{\setlength  {\cftchapterindent }{\cftlastnumwidth } \setlength  {\cftchapternumwidth }{2em}}
\@writefile{toc}{\contentsline {chapter}{\uppercase {Refer\^encias}}{65}{section*.9}}
\newlabel{LastPage}{{}{65}{}{page.65}{}}
\xdef\lastpage@lastpage{65}
\xdef\lastpage@lastpageHy{65}
\gdef\minted@oldcachelist{,
  default.pygstyle,
  default-pyg-prefix.pygstyle,
  FFBA52869CEA6684C240A56954F430AD1ED2925AB780AC95434C3251AE76CD29.pygtex,
  B00F2C89E0DE35037330DB81465ADA7FB70647BEC00F56CBDB6604905B5587D6.pygtex,
  13E609A979BD3DB9C0CDD3FC7F6B8DB01ED2925AB780AC95434C3251AE76CD29.pygtex,
  6B3D00C3BA1E4150B6A32F31A006ACADB70647BEC00F56CBDB6604905B5587D6.pygtex,
  A0DBFF016FB578EC52A9EAD908B1A84EB70647BEC00F56CBDB6604905B5587D6.pygtex,
  93B6C31D58D9B8C711BD660D530CE98F86003A823568036BE4BDB11C23876926.pygtex,
  7642EEE464C1A80774A4B784EBA942ED86003A823568036BE4BDB11C23876926.pygtex,
  DDE3F838FE386799D30D7C50FEDF7FBD86003A823568036BE4BDB11C23876926.pygtex,
  CF657BF4B228E3FA099748DD4980B9ED86003A823568036BE4BDB11C23876926.pygtex,
  FA3C5DA7FBC893AAA87EE90AC7E85DC686003A823568036BE4BDB11C23876926.pygtex,
  F7CCDACEA992F296029A9A3FDE81B28886003A823568036BE4BDB11C23876926.pygtex,
  4222CAE04A30928749DF059330744F8986003A823568036BE4BDB11C23876926.pygtex,
  1D99B84FF0861527E5F4BCD41A8B80F786003A823568036BE4BDB11C23876926.pygtex,
  98D13F8FF77FAAF62F6F18C20BBD2A0686003A823568036BE4BDB11C23876926.pygtex,
  23B9ABAC0D2A2E68FB94E0613494DABD86003A823568036BE4BDB11C23876926.pygtex,
  C89F5837FD6B676797BA07A50B80565E86003A823568036BE4BDB11C23876926.pygtex,
  640ED340C4D5D1B1722BA4DE12FC923E86003A823568036BE4BDB11C23876926.pygtex,
  E71EF46D2BFF50FA3DD5DEF9ACB2176C86003A823568036BE4BDB11C23876926.pygtex,
  6A7B878EF3CE4C42981C2231664F0EC2DA2DE9D98D0508791C849B6BF9988356.pygtex,
  0F63ECFAE14C877D2B608488602D5C99DA2DE9D98D0508791C849B6BF9988356.pygtex,
  EE87B036236359F85E536881A78399F5DA2DE9D98D0508791C849B6BF9988356.pygtex,
  8B810A942660C4C5F9A4B7DD22CDC90EDA2DE9D98D0508791C849B6BF9988356.pygtex,
  C19DD76282BC1E23942662D3C4A749DCDA2DE9D98D0508791C849B6BF9988356.pygtex,
  2057B80F04A280567109BE75E12B7587DA2DE9D98D0508791C849B6BF9988356.pygtex,
  04B50C9CC5A751463639070B75453C1E86003A823568036BE4BDB11C23876926.pygtex,
  1CDFE5DF69EF1D3266A7BEE06542982986003A823568036BE4BDB11C23876926.pygtex,
  A6EE2023251FFEF73ED8046DA2B2342086003A823568036BE4BDB11C23876926.pygtex,
  94C7E694D16431290A559BE521F21DBE86003A823568036BE4BDB11C23876926.pygtex}
\bibstyle{abntex2-alf}
\memsetcounter{lastsheet}{67}
\memsetcounter{lastpage}{65}
